…
# But we still have some "N/A"(not NA), so we need to drop them as well
na <- c(listings_1$host_response_time,listings_1$host_response_rate,listings_1$host_acceptance_rate)

n <- grep("N/A",na) # choose rows' index that contain "N/A"

listings_2 <- listings_1[-n,] %>% 
  mutate(price = parse_number(price),
         host_response_rate=parse_number(host_response_rate),
         host_acceptance_rate=parse_number(host_acceptance_rate))
         #host_is_superhost = factor(host_is_superhost, levels = c("TRUE","FALSE")),
         #host_identity_verified = factor(host_identity_verified, levels = c("TRUE","FALSE")))

listings_2         

# A tibble: 3,467 x 74
      id listing_url  scrape_id last_scraped name   description neighborhood_ov~
   <dbl> <chr>            <dbl> <date>       <chr>  <chr>       <chr>           
 1   958 https://www~   2.02e13 2021-10-06   Brigh~ "Please ch~ Quiet cul de sa~
 2  7918 https://www~   2.02e13 2021-10-06   A Fri~ "Nice and ~ Shopping old to~
 3  8142 https://www~   2.02e13 2021-10-06   Frien~ "Nice and ~ <NA>            
 4  8339 https://www~   2.02e13 2021-10-06   Histo~ "Pls email~ <NA>            
 5  8739 https://www~   2.02e13 2021-10-06   Missi~ "Welcome t~ Located between~
 6 10820 https://www~   2.02e13 2021-10-06   Haigh~ "This prop~ Neighborhood: H~
 7 10824 https://www~   2.02e13 2021-10-06   Victo~ "This prop~ Neighborhood: H~
 8 10832 https://www~   2.02e13 2021-10-06   Union~ "This prop~ Neighborhood: D~
 9 12041 https://www~   2.02e13 2021-10-06   Sunny~ "Nice and ~ Small shopping ~
10 12042 https://www~   2.02e13 2021-10-06   Sunny~ "Settle do~ <NA>            
# ... with 3,457 more rows, and 67 more variables: picture_url <chr>,
#   host_id <dbl>, host_url <chr>, host_name <chr>, host_since <date>,
#   host_location <chr>, host_about <chr>, host_response_time <chr>,
#   host_response_rate <dbl>, host_acceptance_rate <dbl>,
#   host_is_superhost <lgl>, host_thumbnail_url <chr>, host_picture_url <chr>,
#   host_neighbourhood <chr>, host_listings_count <dbl>,
#   host_total_listings_count <dbl>, host_verifications <chr>, ...
…
Relationship between a verified host and ratings:
Consistent with the relationship between a verified host and the number of reviews, the cumulative ratings for a verified host are much higher than for a non-verified host. The relationship between a verified host and ratings is very much comparable to that between a verified host and reviews.

Propery types

Next, we look at the variable property_type. We can use the count function to determine how many categories there are their frequency. What are the top 4 most common property types? What proportion of the total listings do they make up?

Since the vast majority of the observations in the data are one of the top four or five property types, we would like to create a simplified version of property_type variable that has 5 categories: the top four categories and Other. Fill in the code below to create prop_type_simplified.

listings_2 %>% 
  group_by(property_type) %>% 
  summarise(num_property_type = count(property_type)) %>% 
  arrange(desc(num_property_type))

# A tibble: 43 x 2
   property_type                       num_property_type
   <chr>                                           <int>
 1 Entire rental unit                                867
 2 Private room in residential home                  527
 3 Entire residential home                           486
 4 Entire condominium (condo)                        334
 5 Entire guest suite                                283
 6 Private room in rental unit                       246
 7 Room in boutique hotel                            151
 8 Private room in condominium (condo)                99
 9 Room in hotel                                      59
10 Entire serviced apartment                          52
# ... with 33 more rows
…
