Session 6: Homework 3- Group A8
…
  # assume independence, i.e, there is no difference
  hypothesize(null = "independence") %>%
  
  # generate 1000 reps, of type "permute"
  generate(reps = 1000, type = "permute") %>%
  
  # calculate statistic of difference, namely "diff in means"
  calculate(stat = "diff in means", order = c("yes", "no"))

null_dist

## Response: weight (numeric)
## Explanatory: physical_3plus (factor)
## Null Hypothesis: independence
## # A tibble: 1,000 x 2
##    replicate     stat
##        <int>    <dbl>
##  1         1  0.0585 
##  2         2 -0.450  
##  3         3 -0.297  
##  4         4  0.00690
##  5         5  0.485  
##  6         6 -0.690  
##  7         7  0.365  
##  8         8  0.891  
##  9         9 -0.256  
## 10        10 -1.04   
## # ... with 990 more rows
…
#skimr::skim(yield_curve$duration)

yield_curve_table <- yield_curve %>% 
                     mutate(duration = factor(duration, levels= c("3-Month Treasury Bill", "6-Month Treasury Bill", "1-Year Treasury Rate","2-Year Treasury Rate", "3-Year Treasury Rate", "5-Year Treasury Rate", "7-Year Treasury Rate", "10-Year Treasury Rate","20-Year Treasury Rate", "30-Year Treasury Rate")),
                            maturity = factor(maturity, levels= c("3m", "6m", "1y", "2y","3y","5y","7y","10y","20y","30y"))) 

yield_curve_table

## # A tibble: 6,884 x 5
##    date       series_id value maturity duration             
##    <date>     <chr>     <dbl> <fct>    <fct>                
##  1 1960-01-01 TB3MS      4.35 3m       3-Month Treasury Bill
##  2 1960-02-01 TB3MS      3.96 3m       3-Month Treasury Bill
##  3 1960-03-01 TB3MS      3.31 3m       3-Month Treasury Bill
##  4 1960-04-01 TB3MS      3.23 3m       3-Month Treasury Bill
##  5 1960-05-01 TB3MS      3.29 3m       3-Month Treasury Bill
##  6 1960-06-01 TB3MS      2.46 3m       3-Month Treasury Bill
##  7 1960-07-01 TB3MS      2.3  3m       3-Month Treasury Bill
##  8 1960-08-01 TB3MS      2.3  3m       3-Month Treasury Bill
##  9 1960-09-01 TB3MS      2.48 3m       3-Month Treasury Bill
## 10 1960-10-01 TB3MS      2.3  3m       3-Month Treasury Bill
## # ... with 6,874 more rows

yield_curve_table_1 <- yield_curve_table %>%   
                       select("date", "value", "duration") %>% 
                       filter(duration %in% c("3-Month Treasury Bill","10-Year Treasury Rate")) %>% 
                       pivot_wider(names_from = duration , values_from = value) 

colnames(yield_curve_table_1) = c("date", "three_month", "ten_year" )

yield_curve_table_1                   

## # A tibble: 740 x 3
##    date       three_month ten_year
##    <date>           <dbl>    <dbl>
##  1 1960-01-01        4.35     4.72
##  2 1960-02-01        3.96     4.49
##  3 1960-03-01        3.31     4.25
##  4 1960-04-01        3.23     4.28
##  5 1960-05-01        3.29     4.35
##  6 1960-06-01        2.46     4.15
##  7 1960-07-01        2.3      3.9 
##  8 1960-08-01        2.3      3.8 
##  9 1960-09-01        2.48     3.8 
## 10 1960-10-01        2.3      3.89
## # ... with 730 more rows

yield_curve_table_2 <- yield_curve_table_1 %>%
                       group_by(date) %>%
                       mutate(difference = ten_year-three_month,
                              up = ifelse(difference>0, difference,0),
                              down = ifelse(difference<0, difference,0),
                              color_id = if_else(difference>0,"steelblue1","tomato2"))

yield_curve_table_2

## # A tibble: 740 x 7
## # Groups:   date [740]
##    date       three_month ten_year difference    up  down color_id  
##    <date>           <dbl>    <dbl>      <dbl> <dbl> <dbl> <chr>     
##  1 1960-01-01        4.35     4.72       0.37  0.37     0 steelblue1
##  2 1960-02-01        3.96     4.49       0.53  0.53     0 steelblue1
##  3 1960-03-01        3.31     4.25       0.94  0.94     0 steelblue1
##  4 1960-04-01        3.23     4.28       1.05  1.05     0 steelblue1
##  5 1960-05-01        3.29     4.35       1.06  1.06     0 steelblue1
##  6 1960-06-01        2.46     4.15       1.69  1.69     0 steelblue1
##  7 1960-07-01        2.3      3.9        1.6   1.6      0 steelblue1
##  8 1960-08-01        2.3      3.8        1.5   1.5      0 steelblue1
##  9 1960-09-01        2.48     3.8        1.32  1.32     0 steelblue1
## 10 1960-10-01        2.3      3.89       1.59  1.59     0 steelblue1
## # ... with 730 more rows
…
# Let us compare GDP components for these 3 countries
country_list <- c("United States","India", "Germany")

tidy_GDP_data$IndicatorName[tidy_GDP_data$IndicatorName == "Exports of goods and services"] <- "Exports"
tidy_GDP_data$IndicatorName[tidy_GDP_data$IndicatorName == "General government final consumption expenditure"] <- "Government expenditure"
tidy_GDP_data$IndicatorName[tidy_GDP_data$IndicatorName == "Household consumption expenditure (including Non-profit institutions serving households)"] <- "Household expenditure"
tidy_GDP_data$IndicatorName[tidy_GDP_data$IndicatorName == "Imports of goods and services"] <- "Imports"
tidy_GDP_data$IndicatorName[tidy_GDP_data$IndicatorName == "Gross Domestic Product (GDP)"] <- "GDP"

country_list_GDP_all <- subset(tidy_GDP_data, Country == "United States"|
                                 Country == "India"|
                                 Country == "Germany")
country_list_GDP_all

## # A tibble: 2,448 x 4
##    Country IndicatorName                 year  value
##    <chr>   <chr>                         <chr> <dbl>
##  1 Germany Final consumption expenditure 1970  1152.
##  2 Germany Final consumption expenditure 1971  1218.
##  3 Germany Final consumption expenditure 1972  1282.
##  4 Germany Final consumption expenditure 1973  1329.
##  5 Germany Final consumption expenditure 1974  1345.
##  6 Germany Final consumption expenditure 1975  1398.
##  7 Germany Final consumption expenditure 1976  1450.
##  8 Germany Final consumption expenditure 1977  1504.
##  9 Germany Final consumption expenditure 1978  1560.
## 10 Germany Final consumption expenditure 1979  1614.
## # ... with 2,438 more rows

country_list_GDP_components<-subset(country_list_GDP_all, IndicatorName == "Gross capital formation" |
                             IndicatorName == "Exports" |
                             IndicatorName == "Government expenditure" |
                             IndicatorName == "Household expenditure" |
                             IndicatorName == "Imports") %>% 
                             mutate(IndicatorName = factor(IndicatorName, levels = c("Gross capital formation", "Exports", "Government expenditure", "Household expenditure", "Imports")))
country_list_GDP_components

## # A tibble: 720 x 4
##    Country IndicatorName         year  value
##    <chr>   <fct>                 <chr> <dbl>
##  1 Germany Household expenditure 1970   872.
##  2 Germany Household expenditure 1971   919.
##  3 Germany Household expenditure 1972   969.
##  4 Germany Household expenditure 1973   997.
##  5 Germany Household expenditure 1974   995.
##  6 Germany Household expenditure 1975  1032.
##  7 Germany Household expenditure 1976  1076.
##  8 Germany Household expenditure 1977  1122.
##  9 Germany Household expenditure 1978  1162.
## 10 Germany Household expenditure 1979  1200.
## # ... with 710 more rows
…
What is the % difference between what you calculated as GDP and the GDP figure included in the dataframe?

Comment: For Germany and the US, there is on average a positive % difference, while for India it is negative. This may be caused by the strength of local currencies against the USD. An important factor that the UN used to calculate the composition of GDP is exchange rate. Furthermore, using a unique exchange rate for 1 year may not be entirely justified and may cause differences between GDP figure and calculated GDP.

GDP_compare <- subset(country_list_GDP_all, IndicatorName == "GDP") %>% 
  pivot_wider(names_from = IndicatorName, values_from = value) %>% 
  add_column(calculated_GDP = GDP_breakdown$GDP) %>% 
  mutate(difference = ((calculated_GDP-GDP)/calculated_GDP),
         difference = scales::percent(difference)) 

GDP_compare

## # A tibble: 144 x 5
##    Country year    GDP calculated_GDP difference
##    <chr>   <chr> <dbl>          <dbl> <chr>     
##  1 Germany 1970  1534.          1581. 2.9411489%
##  2 Germany 1971  1582.          1638. 3.4186469%
##  3 Germany 1972  1650.          1709. 3.4345346%
##  4 Germany 1973  1729.          1779. 2.8384274%
##  5 Germany 1974  1744.          1775. 1.7494124%
##  6 Germany 1975  1729.          1780. 2.8439266%
##  7 Germany 1976  1815.          1866. 2.7550360%
##  8 Germany 1977  1876.          1927. 2.6906752%
##  9 Germany 1978  1932.          1991. 2.9584940%
## 10 Germany 1979  2012.          2081. 3.3270997%
## # ... with 134 more rows
…
country_list_GDP_all_new <- subset(tidy_GDP_data, Country == "China"|
                                 Country == "Peru"|
                                 Country == "Spain")

country_list_GDP_components<-subset(country_list_GDP_all_new, IndicatorName == "Gross capital formation" |
                             IndicatorName == "Exports" |
                             IndicatorName == "Government expenditure" |
                             IndicatorName == "Household expenditure" |
                             IndicatorName == "Imports") %>% 
                             mutate(IndicatorName = factor(IndicatorName, levels = c("Gross capital formation", "Exports", "Government expenditure", "Household expenditure", "Imports")))
country_list_GDP_components

## # A tibble: 720 x 4
##    Country IndicatorName         year  value
##    <chr>   <fct>                 <chr> <dbl>
##  1 China   Household expenditure 1970   108.
##  2 China   Household expenditure 1971   112.
##  3 China   Household expenditure 1972   118.
##  4 China   Household expenditure 1973   127.
##  5 China   Household expenditure 1974   129.
##  6 China   Household expenditure 1975   135.
##  7 China   Household expenditure 1976   139.
##  8 China   Household expenditure 1977   143.
##  9 China   Household expenditure 1978   151.
## 10 China   Household expenditure 1979   158.
## # ... with 710 more rows

# Subset of data of the three countries 
country_list_GDP_new <- subset(country_list_GDP_components, Country %in% c(country_list_new))
country_list_GDP_new

## # A tibble: 720 x 4
##    Country IndicatorName         year  value
##    <chr>   <fct>                 <chr> <dbl>
##  1 China   Household expenditure 1970   108.
##  2 China   Household expenditure 1971   112.
##  3 China   Household expenditure 1972   118.
##  4 China   Household expenditure 1973   127.
##  5 China   Household expenditure 1974   129.
##  6 China   Household expenditure 1975   135.
##  7 China   Household expenditure 1976   139.
##  8 China   Household expenditure 1977   143.
##  9 China   Household expenditure 1978   151.
## 10 China   Household expenditure 1979   158.
## # ... with 710 more rows
…
